<?xml version="1.0" encoding="UTF-8"?>
<svg width="800px" height="800px" viewBox="0 0 24 24" version="1.1" xmlns="http://www.w3.org/2000/svg" xmlns:xlink="http://www.w3.org/1999/xlink">
    <!-- Uploaded to: SVG Repo, www.svgrepo.com, Generator: SVG Repo Mixer Tools -->
    <title>ic_fluent_lightbulb_circle_24_regular</title>
    <desc>Created with Sketch.</desc>
    <g id="🔍-Product-Icons" stroke="none" stroke-width="1" fill="none" fill-rule="evenodd">
        <g id="ic_fluent_lightbulb_circle_24_regular" fill="#212121" fill-rule="nonzero">
            <path d="M12,2 C17.5228475,2 22,6.4771525 22,12 C22,17.5228475 17.5228475,22 12,22 C6.4771525,22 2,17.5228475 2,12 C2,6.4771525 6.4771525,2 12,2 Z M12,3.5 C7.30557963,3.5 3.5,7.30557963 3.5,12 C3.5,16.6944204 7.30557963,20.5 12,20.5 C16.6944204,20.5 20.5,16.6944204 20.5,12 C20.5,7.30557963 16.6944204,3.5 12,3.5 Z M12,5.20192308 C14.7614237,5.20192308 17,7.44049933 17,10.2019231 C17,11.7382837 16.3017164,13.1614549 15.1098423,14.1170278 L15.142,14.089 L14.3773858,17.4564876 C14.2233303,18.1240615 13.6925023,18.6314972 12.9978852,18.7671003 L12.9978852,18.7671003 L12.8466093,18.7903897 L12.6909395,18.7980769 L11.3090605,18.7980769 C10.5750044,18.7980769 9.92281665,18.3352973 9.66510834,17.6064423 L9.66510834,17.6064423 L9.62208636,17.4541839 L8.856,14.088 L8.70145288,13.9593293 C7.76934244,13.1411875 7.16573084,11.9984793 7.02867715,10.7288689 L7.02867715,10.7288689 L7.00752809,10.4733133 L7,10.2019231 C7,7.44049933 9.23857625,5.20192308 12,5.20192308 Z M13.17,16 L10.828,16 L11.0733612,17.077684 L11.0917619,17.1451356 C11.1241444,17.2362559 11.2112677,17.2980769 11.3090605,17.2980769 L11.3090605,17.2980769 L12.6480509,17.2993042 L12.7179127,17.2965418 C12.8139811,17.2854779 12.8938094,17.2144868 12.9152384,17.1216467 L12.9152384,17.1216467 L13.17,16 Z M12,6.70192308 C10.0670034,6.70192308 8.5,8.26892645 8.49968716,10.180263 L8.49968716,10.180263 L8.50595936,10.4082682 C8.56761455,11.4723206 9.10904809,12.436762 9.96451026,13.0490388 C10.1137332,13.1558416 10.2186219,13.3136467 10.2593212,13.4925821 L10.2593212,13.4925821 L10.488,14.502 L10.5288462,14.5 L13.4711538,14.5 L13.51,14.502 L13.7396459,13.4938038 C13.7709571,13.3560172 13.8403674,13.2306076 13.9389762,13.1313668 L14.0182684,13.0620584 L14.1878569,12.9340214 C15.0119474,12.273056 15.5,11.2783564 15.5,10.2019231 C15.5,8.26892645 13.9329966,6.70192308 12,6.70192308 Z" id="🎨-Color">
</path>
        </g>
    </g>
</svg>
